{
	"extension_description": {
		"message":     "Включить умное перенаправление (отправлять реферер только внутри домена)",
		"description": "Extension description"
	},
	
	
	"menu_options": {
		"message":     "Настройки…",
		"description": "The label of the menu item for opening the extension's preference page"
	},
	
	
	
	"options_enable_label": {
		"message":     "Включить Smart Referer",
		"description": "Label of the options page checkbox that enables or disables all of the extension's functionality"
	},
	
	"options_icon_color_mode_label": {
		"message":     "Цвет значка панели инструментов",
		"description": "Label of the options selection of different sources for the icon line color"
	},
	
	"options_icon_color_mode_description": {
		"message":     "The selected color value will only be used when no compatible theme is active.",
		"description": "Extra information for the options selection of different sources for the icon line color"
	},
	
	"options_icon_color_mode_managed": {
		"message":     "The current theme exports the required color information. No further configuration is necessary.",
		"description": "Message displayed when the icon color can be scraped from the current theme and no manual configuration is necessary"
	},
	
	"options_icon_color_mode_system": {
		"message":     "Системный цвет текста",
		"description": "Options selection for deducing the icon line color based on the current system theme"
	},
	
	"options_icon_color_mode_default": {
		"message":     "Цвета тем по умолчанию \"темная\" и \"светлая\"",
		"description": "Options selection for using the icon line color based on the Mozilla default themes – note that these are *not* the themes used by default in most installations"
	},
	
	"options_icon_color_mode_custom": {
		"message":     "Пользовательский цвет:",
		"description": "Options selection for using the icon line color value set using the color selector placed after this message"
	},
	
	"options_strictness_label": {
		"message":     "Строгость сопоставления доменных имен (только\u00A0для\u00A0тестов)",
		"description": "Label of the options selection for determining whether different sub-domains of the same base domain will see each others referrers by default"
	},
	
	"options_strictness_description": {
		"message":     "Рассматривать ли разные поддомены одного базового домена как разные сайты?<br />(Например, <code>a.example.com</code> и <code>b.example.com</code> разные хосты?)",
		"description": "Longer description of the options selection for determining whether different sub-domains of the same base domain will see each others referrers by default"
	},
	
	"options_strictness_disclaimer": {
		"message":     "Не используйте эту функцию, если вы не готовы решать возникающие проблемы самостоятельно!",
		"description": "Message reinforcing that changing the strictness option is not really supported"
	},
	
	"options_strictness_lax_label": {
		"message":     "Тот же сайт  (настоятельно рекомендуется)",
		"description": "Label of the options selection for determining whether different sub-domains of the same base domain will see each others referrers by default"
	},
	
	"options_strictness_lax_description": {
		"message":     "Рассматривать разные поддомены одного базового домена как один сайт.",
		"description": "Longer description of the options selection for determining whether different sub-domains of the same base domain will see each others referrers by default"
	},
	
	"options_strictness_strict_label": {
		"message":     "Строго",
		"description": "Label of the options selection for determining whether different sub-domains of the same base domain will see each others referrers by default"
	},
	
	"options_strictness_strict_description": {
		"message":     "Рассматривать разные поддомены одного базового домена как разные сайты.",
		"description": "Longer description of the options selection for determining whether different sub-domains of the same base domain will see each others referrers by default"
	},
	
	"options_strictness_inf_label": {
		"message":     "Никогда",
		"description": "Label of the options selection for determining whether different sub-domains of the same base domain will see each others referrers by default"
	},
	
	"options_strictness_inf_description": {
		"message":     "Всегда рассматривать ресурсы как разные сайты, даже если у них одно происхождение.",
		"description": "Longer description of the options selection for determining whether different sub-domains of the same base domain will see each others referrers by default"
	},
	
	"options_allow_label": {
		"message":     "Исключения",
		"description": "Label of the options page table that allows configuring Smart Referer policy exceptions"
	},
	
	"options_allow_description": {
		"message":     "Всегда разрешать передачу реферера ОТ и К указанным исходным и целевым хостам",
		"description": "Longer description of the options page table that allows configuring Smart Referer policy exceptions"
	},
	
	"options_allow_heading_source": {
		"message":     "Исходный",
		"description": "Heading of the options page policy exception table column that contains the source host names"
	},
	
	"options_allow_heading_destination": {
		"message":     "Целевой",
		"description": "Heading of the options page policy exception table column that contains the destination host names"
	},
	
	"options_allow_explanation": {
		"message":     "<ul><li>Как исходный, так и целевой хосты могут содержать подстановочные знаки, например, <code>example.*</code> будет соответстввать всем доменам сожержащим в начале <code>example</code>: <code>example.com</code>, <code>example.org</code>, <code>example.net</code>, но не <code>example2.org</code>.</li><li>Звездочка <code>*</code> означает любой хост. Точка в начале, например, <code>.example.org</code>, будет соответствовать как <code>example.org</code> так и <code>bla.bla.example.org</code>.</li></ul>",
		"description": "Explanatory text that is displayed below the options page policy exception table"
	},
	
	"options_whitelist_label": {
		"message":     "Белый список исходных хостов",
		"description": "Label of the section that specifies the locations from which the updated lists of policy exceptions are regularly downloaded"
	},
	
	"options_whitelist_sources_heading": {
		"message":     "Пользовательский белый список исходных хостов",
		"description": "Heading text of the table containing custom whitelist sources that may be configured by the user"
	},
	
	"options_whitelist_default_label": {
		"message":     "Использовать белый список по умолчанию (<a target=\"_blank\" rel=\"noopener noreferrer\" href=\"$URL$\">Посмотреть</a>)",
		"description": "Label of the checkbox that enables/disables the usage of the default whitelist source (please do not modify the <a>-tag from the original!)",
		"placeholders": {
			"url" : {
				"content" : "$1",
				"example" : "https://www.example.net/whitelist.txt"
			}
		}
	},
	
	"options_item_add.title": {
		"message":     "Добавить элемент",
		"description": "Tooltip of the \"Add Item\" button next to not-yet-added items in the options page policy exception table"
	},
	
	"options_item_remove.title": {
		"message":     "Удалить элемент",
		"description": "Tooltip of the \"Remove Item\" button next to existing items of the options page policy exception table"
	},
	
	"options_mode_label": {
		"message":     "Режим перезаписи",
		"description": "Label of the drop-down menu for choosing which what to do if a referer is deemed as not being worthy of keeping"
	},
	
	"options_mode_self": {
		"message":     "Отправить целевой URL в качестве реферера (рекомендуется)",
		"description": "Rewrite Mode that changes disallowed referers to the URL of the site being visited"
	},
	
	"options_mode_direct": {
		"message":     "Отправить \"ничего\" в качестве реферера (будет выглядеть как будто вы ввели адрес самостоятельно, а не перенаправлены с другой страницы).",
		"description": "Rewrite Mode that just drops all disallowed referers"
	},
	
	"options_mode_user": {
		"message":     "Отправить это вместо реферера (если он есть):",
		"description": "Rewrite Mode that changes all disallowed referers to a user-provided value, that then may be entered into a text area field directly below the drop-down selection menu for picking the rewriting mode"
	},
	
	"options_mode_referer.title": {
		"message":     "Пользовательское значение реферера",
		"description": "Tooltip text of the text box that can be used to enter a custom referer if \"Rewrite Mode\" is set to that mode"
	},
	
	
	
	"icon_title_enabled": {
		"message":     "Включен",
		"description": "Text displayed in the browser action icon tooltip when request processing is being done"
	},
	
	"icon_title_disabled": {
		"message":     "Отключен",
		"description": "Text displayed in the browser action icon tooltip when no request processing is being done"
	},
	
	
	
	"log_blocked_http": {
		"message":     "Отклонен HTTP реферер “$SOURCE$” для “$TARGET$”",
		"description": "Message logged when a referer value has been blocked at the HTTP level",
		"placeholders": {
			"source" : {
				"content" : "%s",
				"example" : "https://www.example.net/"
			},
			
			"target" : {
				"content" : "%s",
				"example" : "https://example.com/"
			}
		}
	},
	
	"log_blocked_script": {
		"message":     "Отклонен script реферер “$SOURCE$” для “$TARGET$”",
		"description": "Message logged when a referer value has been blocked at the JavaScript level",
		"placeholders": {
			"source" : {
				"content" : "%s",
				"example" : "https://www.example.net/"
			},
			
			"target" : {
				"content" : "%s",
				"example" : "https://example.com/"
			}
		}
	},
	
	"log_whitelist_update_failed": {
		"message":     "Не удалось получить источник белого списка в “$URL$”:",
		"description": "Message logged when updating some whitelist source failed, the next line will contain the JavaScript exception",
		"placeholders": {
			"url" : {
				"content": "%s",
				"example": "https://www.example.net/whitelist.txt"
			}
		}
	},
	
	"log_whitelist_update_finished": {
		"message":     "Финальный белый список имеет $COUNT$ элементов: $JSLIST$",
		"description": "Message logged when updating of whitelists has finished",
		"placeholders": {
			"count" : {
				"content": "%d",
				"example": "https://www.example.net/whitelist.txt"
			},
			
			"jslist" : {
				"content": "%o"
			}
		}
	}
}
